(kicad_sch (version 20211123) (generator eeschema)

  (uuid efd79599-519e-43e2-89e5-8cf80c3661d0)

  (paper "A4")

  (lib_symbols
    (symbol "Device:C" (pin_numbers hide) (pin_names (offset 0.254)) (in_bom yes) (on_board yes)
      (property "Reference" "C" (id 0) (at 0.635 2.54 0)
        (effects (font (size 1.27 1.27)) (justify left))
      )
      (property "Value" "C" (id 1) (at 0.635 -2.54 0)
        (effects (font (size 1.27 1.27)) (justify left))
      )
      (property "Footprint" "" (id 2) (at 0.9652 -3.81 0)
        (effects (font (size 1.27 1.27)) hide)
      )
      (property "Datasheet" "~" (id 3) (at 0 0 0)
        (effects (font (size 1.27 1.27)) hide)
      )
      (property "ki_keywords" "cap capacitor" (id 4) (at 0 0 0)
        (effects (font (size 1.27 1.27)) hide)
      )
      (property "ki_description" "Unpolarized capacitor" (id 5) (at 0 0 0)
        (effects (font (size 1.27 1.27)) hide)
      )
      (property "ki_fp_filters" "C_*" (id 6) (at 0 0 0)
        (effects (font (size 1.27 1.27)) hide)
      )
      (symbol "C_0_1"
        (polyline
          (pts
            (xy -2.032 -0.762)
            (xy 2.032 -0.762)
          )
          (stroke (width 0.508) (type default) (color 0 0 0 0))
          (fill (type none))
        )
        (polyline
          (pts
            (xy -2.032 0.762)
            (xy 2.032 0.762)
          )
          (stroke (width 0.508) (type default) (color 0 0 0 0))
          (fill (type none))
        )
      )
      (symbol "C_1_1"
        (pin passive line (at 0 3.81 270) (length 2.794)
          (name "~" (effects (font (size 1.27 1.27))))
          (number "1" (effects (font (size 1.27 1.27))))
        )
        (pin passive line (at 0 -3.81 90) (length 2.794)
          (name "~" (effects (font (size 1.27 1.27))))
          (number "2" (effects (font (size 1.27 1.27))))
        )
      )
    )
    (symbol "Device:R" (pin_numbers hide) (pin_names (offset 0)) (in_bom yes) (on_board yes)
      (property "Reference" "R" (id 0) (at 2.032 0 90)
        (effects (font (size 1.27 1.27)))
      )
      (property "Value" "R" (id 1) (at 0 0 90)
        (effects (font (size 1.27 1.27)))
      )
      (property "Footprint" "" (id 2) (at -1.778 0 90)
        (effects (font (size 1.27 1.27)) hide)
      )
      (property "Datasheet" "~" (id 3) (at 0 0 0)
        (effects (font (size 1.27 1.27)) hide)
      )
      (property "ki_keywords" "R res resistor" (id 4) (at 0 0 0)
        (effects (font (size 1.27 1.27)) hide)
      )
      (property "ki_description" "Resistor" (id 5) (at 0 0 0)
        (effects (font (size 1.27 1.27)) hide)
      )
      (property "ki_fp_filters" "R_*" (id 6) (at 0 0 0)
        (effects (font (size 1.27 1.27)) hide)
      )
      (symbol "R_0_1"
        (rectangle (start -1.016 -2.54) (end 1.016 2.54)
          (stroke (width 0.254) (type default) (color 0 0 0 0))
          (fill (type none))
        )
      )
      (symbol "R_1_1"
        (pin passive line (at 0 3.81 270) (length 1.27)
          (name "~" (effects (font (size 1.27 1.27))))
          (number "1" (effects (font (size 1.27 1.27))))
        )
        (pin passive line (at 0 -3.81 90) (length 1.27)
          (name "~" (effects (font (size 1.27 1.27))))
          (number "2" (effects (font (size 1.27 1.27))))
        )
      )
    )
    (symbol "lsf-kicad:MAX17261METD+" (in_bom yes) (on_board yes)
      (property "Reference" "U" (id 0) (at 0 5.08 0)
        (effects (font (size 1.27 1.27)))
      )
      (property "Value" "MAX17261METD+" (id 1) (at 0 1.27 0)
        (effects (font (size 1.27 1.27)))
      )
      (property "Footprint" "lsf-kicad-lib:TDFN-14-1EP_3x3mm_P0.4mm_EP1.7x2.3mm" (id 2) (at 27.94 -20.32 0)
        (effects (font (size 1.27 1.27)) hide)
      )
      (property "Datasheet" "https://datasheets.maximintegrated.com/en/ds/MAX17261.pdf" (id 3) (at 0 2.54 0)
        (effects (font (size 1.27 1.27)) hide)
      )
      (property "ki_keywords" "Battery management fuel gauge" (id 4) (at 0 0 0)
        (effects (font (size 1.27 1.27)) hide)
      )
      (property "ki_description" "5.1μA Multi-Cell Fuel Gauge with ModelGauge m5 EZ, 14-TDFN" (id 5) (at 0 0 0)
        (effects (font (size 1.27 1.27)) hide)
      )
      (property "ki_fp_filters" "*TDFN?14*" (id 6) (at 0 0 0)
        (effects (font (size 1.27 1.27)) hide)
      )
      (symbol "MAX17261METD+_0_1"
        (rectangle (start -12.7 15.24) (end 12.7 -15.24)
          (stroke (width 0.254) (type default) (color 0 0 0 0))
          (fill (type background))
        )
      )
      (symbol "MAX17261METD+_1_1"
        (pin input line (at -15.24 -2.54 0) (length 2.54)
          (name "TH" (effects (font (size 1.27 1.27))))
          (number "1" (effects (font (size 1.27 1.27))))
        )
        (pin passive line (at -15.24 7.62 0) (length 2.54)
          (name "CELLX" (effects (font (size 1.27 1.27))))
          (number "10" (effects (font (size 1.27 1.27))))
        )
        (pin power_out line (at 15.24 10.16 180) (length 2.54)
          (name "REG" (effects (font (size 1.27 1.27))))
          (number "11" (effects (font (size 1.27 1.27))))
        )
        (pin open_collector output_low (at 15.24 5.08 180) (length 2.54)
          (name "ALRT" (effects (font (size 1.27 1.27))))
          (number "12" (effects (font (size 1.27 1.27))))
        )
        (pin bidirectional line (at -15.24 2.54 0) (length 2.54)
          (name "SDA" (effects (font (size 1.27 1.27))))
          (number "13" (effects (font (size 1.27 1.27))))
        )
        (pin input clock (at -15.24 0 0) (length 2.54)
          (name "SCL" (effects (font (size 1.27 1.27))))
          (number "14" (effects (font (size 1.27 1.27))))
        )
        (pin no_connect line (at -10.16 -17.78 90) (length 2.54) hide
          (name "NC" (effects (font (size 1.27 1.27))))
          (number "2" (effects (font (size 1.27 1.27))))
        )
        (pin output line (at -15.24 10.16 0) (length 2.54)
          (name "SW" (effects (font (size 1.27 1.27))))
          (number "3" (effects (font (size 1.27 1.27))))
        )
        (pin no_connect line (at -7.62 -17.78 90) (length 2.54) hide
          (name "NC" (effects (font (size 1.27 1.27))))
          (number "4" (effects (font (size 1.27 1.27))))
        )
        (pin no_connect line (at -5.08 -17.78 90) (length 2.54) hide
          (name "NC" (effects (font (size 1.27 1.27))))
          (number "5" (effects (font (size 1.27 1.27))))
        )
        (pin power_in line (at 0 17.78 270) (length 2.54)
          (name "BATT" (effects (font (size 1.27 1.27))))
          (number "6" (effects (font (size 1.27 1.27))))
        )
        (pin passive line (at -15.24 -7.62 0) (length 2.54)
          (name "CSN" (effects (font (size 1.27 1.27))))
          (number "7" (effects (font (size 1.27 1.27))))
        )
        (pin power_in line (at 0 -17.78 90) (length 2.54)
          (name "GND" (effects (font (size 1.27 1.27))))
          (number "8" (effects (font (size 1.27 1.27))))
        )
        (pin passive line (at -15.24 -10.16 0) (length 2.54)
          (name "CSPL" (effects (font (size 1.27 1.27))))
          (number "9" (effects (font (size 1.27 1.27))))
        )
        (pin power_in line (at 5.08 -17.78 90) (length 2.54)
          (name "EP" (effects (font (size 1.27 1.27))))
          (number "EP" (effects (font (size 1.27 1.27))))
        )
      )
    )
    (symbol "power:GND" (power) (pin_names (offset 0)) (in_bom yes) (on_board yes)
      (property "Reference" "#PWR" (id 0) (at 0 -6.35 0)
        (effects (font (size 1.27 1.27)) hide)
      )
      (property "Value" "GND" (id 1) (at 0 -3.81 0)
        (effects (font (size 1.27 1.27)))
      )
      (property "Footprint" "" (id 2) (at 0 0 0)
        (effects (font (size 1.27 1.27)) hide)
      )
      (property "Datasheet" "" (id 3) (at 0 0 0)
        (effects (font (size 1.27 1.27)) hide)
      )
      (property "ki_keywords" "power-flag" (id 4) (at 0 0 0)
        (effects (font (size 1.27 1.27)) hide)
      )
      (property "ki_description" "Power symbol creates a global label with name \"GND\" , ground" (id 5) (at 0 0 0)
        (effects (font (size 1.27 1.27)) hide)
      )
      (symbol "GND_0_1"
        (polyline
          (pts
            (xy 0 0)
            (xy 0 -1.27)
            (xy 1.27 -1.27)
            (xy 0 -2.54)
            (xy -1.27 -1.27)
            (xy 0 -1.27)
          )
          (stroke (width 0) (type default) (color 0 0 0 0))
          (fill (type none))
        )
      )
      (symbol "GND_1_1"
        (pin power_in line (at 0 0 270) (length 0) hide
          (name "GND" (effects (font (size 1.27 1.27))))
          (number "1" (effects (font (size 1.27 1.27))))
        )
      )
    )
  )

  (junction (at 170.18 115.57) (diameter 0) (color 0 0 0 0)
    (uuid 1a756329-5d6b-4a41-bcb3-1e92b20c46bd)
  )
  (junction (at 147.32 66.04) (diameter 0) (color 0 0 0 0)
    (uuid 24f17f5c-cca9-4a0d-a204-a63e5ad79069)
  )
  (junction (at 120.65 115.57) (diameter 0) (color 0 0 0 0)
    (uuid 281b3cbd-f7ec-4d87-b3a2-603646d07edd)
  )
  (junction (at 115.57 66.04) (diameter 0) (color 0 0 0 0)
    (uuid 39d771ae-6257-4f92-8f0e-1d7fcf697df1)
  )
  (junction (at 130.81 120.65) (diameter 0) (color 0 0 0 0)
    (uuid 6fa84cf0-dbd0-485d-a318-82c5e12abfce)
  )
  (junction (at 115.57 87.63) (diameter 0) (color 0 0 0 0)
    (uuid 8ccb407e-2dfb-4c49-870d-c95d7efe709c)
  )
  (junction (at 115.57 97.79) (diameter 0) (color 0 0 0 0)
    (uuid 9fed0553-4b14-473d-b671-d683d173b0df)
  )
  (junction (at 130.81 115.57) (diameter 0) (color 0 0 0 0)
    (uuid a1bdd81d-ed47-44ea-ac38-ad99a9f1856b)
  )
  (junction (at 120.65 120.65) (diameter 0) (color 0 0 0 0)
    (uuid c3783718-6b5a-4e00-899e-d972b8e3edb5)
  )
  (junction (at 147.32 115.57) (diameter 0) (color 0 0 0 0)
    (uuid d13f6fd4-6f3b-4e80-a131-d0013170430a)
  )
  (junction (at 152.4 115.57) (diameter 0) (color 0 0 0 0)
    (uuid e2d36093-a426-41a7-b6d3-8de60c825afd)
  )
  (junction (at 172.72 85.09) (diameter 0) (color 0 0 0 0)
    (uuid f70d0fa9-43ab-45fd-900c-7a9f617ed4e2)
  )

  (no_connect (at 132.08 85.09) (uuid cf82c222-0cd5-4850-9ec2-0b79f7520573))

  (wire (pts (xy 147.32 77.47) (xy 147.32 66.04))
    (stroke (width 0) (type default) (color 0 0 0 0))
    (uuid 0ae1d9af-8111-45c0-814d-fbcc19c0c619)
  )
  (wire (pts (xy 147.32 113.03) (xy 147.32 115.57))
    (stroke (width 0) (type default) (color 0 0 0 0))
    (uuid 1253b7fa-dae6-4319-948c-1e06bcb6db2b)
  )
  (wire (pts (xy 172.72 85.09) (xy 172.72 115.57))
    (stroke (width 0) (type default) (color 0 0 0 0))
    (uuid 14be5a40-c577-45e6-abcb-e7a98f558975)
  )
  (wire (pts (xy 115.57 87.63) (xy 115.57 88.9))
    (stroke (width 0) (type default) (color 0 0 0 0))
    (uuid 18588615-0648-43ed-a90a-81de2bc2076d)
  )
  (wire (pts (xy 132.08 102.87) (xy 120.65 102.87))
    (stroke (width 0) (type default) (color 0 0 0 0))
    (uuid 24b4283c-cad5-4631-bfc2-4015cf482097)
  )
  (wire (pts (xy 115.57 97.79) (xy 115.57 96.52))
    (stroke (width 0) (type default) (color 0 0 0 0))
    (uuid 251da689-34e6-472d-9df9-a3021475b3f5)
  )
  (wire (pts (xy 172.72 85.09) (xy 171.45 85.09))
    (stroke (width 0) (type default) (color 0 0 0 0))
    (uuid 2a0a6ac3-8f5a-4349-8e5a-b2adbb583c67)
  )
  (wire (pts (xy 170.18 115.57) (xy 172.72 115.57))
    (stroke (width 0) (type default) (color 0 0 0 0))
    (uuid 2b61d895-c8b1-4cbb-b730-5c78425a4b87)
  )
  (wire (pts (xy 170.18 101.6) (xy 170.18 115.57))
    (stroke (width 0) (type default) (color 0 0 0 0))
    (uuid 408f5f24-cf80-4960-bead-78e55a43df9f)
  )
  (wire (pts (xy 129.54 95.25) (xy 132.08 95.25))
    (stroke (width 0) (type default) (color 0 0 0 0))
    (uuid 4d1e7e07-8562-44f7-9f3d-70c314abf23d)
  )
  (wire (pts (xy 132.08 105.41) (xy 130.81 105.41))
    (stroke (width 0) (type default) (color 0 0 0 0))
    (uuid 50e8470a-293a-4084-9d99-cff3d701f824)
  )
  (wire (pts (xy 147.32 66.04) (xy 172.72 66.04))
    (stroke (width 0) (type default) (color 0 0 0 0))
    (uuid 5591fc44-b547-49ce-a818-27178ffeb2ad)
  )
  (wire (pts (xy 162.56 85.09) (xy 163.83 85.09))
    (stroke (width 0) (type default) (color 0 0 0 0))
    (uuid 55f618af-6649-4e66-b104-4de5e84530fd)
  )
  (wire (pts (xy 120.65 120.65) (xy 120.65 129.54))
    (stroke (width 0) (type default) (color 0 0 0 0))
    (uuid 56092c64-1aca-43db-82e9-953c878c43ea)
  )
  (wire (pts (xy 162.56 90.17) (xy 170.18 90.17))
    (stroke (width 0) (type default) (color 0 0 0 0))
    (uuid 580b7656-da3e-42b0-807b-34e34c8b44b2)
  )
  (wire (pts (xy 115.57 97.79) (xy 115.57 138.43))
    (stroke (width 0) (type default) (color 0 0 0 0))
    (uuid 5ad808d3-3d1b-4302-947f-4e0acefb7153)
  )
  (wire (pts (xy 121.92 120.65) (xy 120.65 120.65))
    (stroke (width 0) (type default) (color 0 0 0 0))
    (uuid 5d2f7479-eb61-4327-80cc-feea2f2438dd)
  )
  (wire (pts (xy 115.57 66.04) (xy 115.57 67.31))
    (stroke (width 0) (type default) (color 0 0 0 0))
    (uuid 6845df58-7b28-45ae-9b8d-2273b15a2fbb)
  )
  (wire (pts (xy 132.08 97.79) (xy 129.54 97.79))
    (stroke (width 0) (type default) (color 0 0 0 0))
    (uuid 7672cf45-3b49-462f-95b4-b09344e22e6c)
  )
  (wire (pts (xy 115.57 138.43) (xy 130.81 138.43))
    (stroke (width 0) (type default) (color 0 0 0 0))
    (uuid 7b5bc429-7476-48c1-a3f5-e84f708e1374)
  )
  (wire (pts (xy 152.4 115.57) (xy 147.32 115.57))
    (stroke (width 0) (type default) (color 0 0 0 0))
    (uuid 7d7666d0-9352-45b1-a75d-fc3da067d1c1)
  )
  (wire (pts (xy 115.57 74.93) (xy 115.57 87.63))
    (stroke (width 0) (type default) (color 0 0 0 0))
    (uuid 82442840-13e9-4b42-b4a2-2b228a322878)
  )
  (wire (pts (xy 170.18 90.17) (xy 170.18 93.98))
    (stroke (width 0) (type default) (color 0 0 0 0))
    (uuid 84fa9fc8-3bcf-4b27-b099-3732ac7a933d)
  )
  (wire (pts (xy 129.54 92.71) (xy 132.08 92.71))
    (stroke (width 0) (type default) (color 0 0 0 0))
    (uuid a2d210ac-9a76-49d2-a522-ee86ad3a8092)
  )
  (wire (pts (xy 152.4 113.03) (xy 152.4 115.57))
    (stroke (width 0) (type default) (color 0 0 0 0))
    (uuid a4ee2b40-f988-48f3-8bd7-5e4002a8aabc)
  )
  (wire (pts (xy 120.65 120.65) (xy 120.65 115.57))
    (stroke (width 0) (type default) (color 0 0 0 0))
    (uuid a7d45b04-bda4-4675-86a4-51ffcf66d470)
  )
  (wire (pts (xy 105.41 97.79) (xy 115.57 97.79))
    (stroke (width 0) (type default) (color 0 0 0 0))
    (uuid a8c6a38f-74b1-458c-aaeb-bc1ad9843f12)
  )
  (wire (pts (xy 152.4 115.57) (xy 170.18 115.57))
    (stroke (width 0) (type default) (color 0 0 0 0))
    (uuid ab45c65e-cfc6-40e2-bb25-0c862328ab40)
  )
  (wire (pts (xy 172.72 85.09) (xy 172.72 80.01))
    (stroke (width 0) (type default) (color 0 0 0 0))
    (uuid bb5ce614-b33e-42f2-929d-c1530d1f63ef)
  )
  (wire (pts (xy 120.65 115.57) (xy 121.92 115.57))
    (stroke (width 0) (type default) (color 0 0 0 0))
    (uuid c39022de-0888-4eb5-9d55-ae85ae55a453)
  )
  (wire (pts (xy 130.81 115.57) (xy 147.32 115.57))
    (stroke (width 0) (type default) (color 0 0 0 0))
    (uuid cdecda5d-1834-47de-a661-d4bb5cdd041f)
  )
  (wire (pts (xy 130.81 105.41) (xy 130.81 115.57))
    (stroke (width 0) (type default) (color 0 0 0 0))
    (uuid ce6d2026-6310-47a6-9506-005584cbc327)
  )
  (wire (pts (xy 130.81 138.43) (xy 130.81 120.65))
    (stroke (width 0) (type default) (color 0 0 0 0))
    (uuid d4852874-bbe3-4003-b6a7-796d69db9a14)
  )
  (wire (pts (xy 115.57 87.63) (xy 132.08 87.63))
    (stroke (width 0) (type default) (color 0 0 0 0))
    (uuid d4bc6f0f-23a3-40c2-8613-bf9d7e9db4b9)
  )
  (wire (pts (xy 120.65 102.87) (xy 120.65 115.57))
    (stroke (width 0) (type default) (color 0 0 0 0))
    (uuid e2688beb-39ee-4b42-bb0e-0bf3cb6f16ac)
  )
  (wire (pts (xy 172.72 72.39) (xy 172.72 66.04))
    (stroke (width 0) (type default) (color 0 0 0 0))
    (uuid e7d51e7a-b0fd-4c95-9045-db5c875073df)
  )
  (wire (pts (xy 147.32 66.04) (xy 115.57 66.04))
    (stroke (width 0) (type default) (color 0 0 0 0))
    (uuid e8e014ac-2539-4fa8-ba7b-6fa49ba4f605)
  )
  (wire (pts (xy 130.81 115.57) (xy 130.81 120.65))
    (stroke (width 0) (type default) (color 0 0 0 0))
    (uuid eabbae23-7ec5-4172-83d2-50e98e74bc04)
  )
  (wire (pts (xy 130.81 120.65) (xy 129.54 120.65))
    (stroke (width 0) (type default) (color 0 0 0 0))
    (uuid edfa1e81-55a3-48df-abd1-f61f9e5254d1)
  )
  (wire (pts (xy 105.41 66.04) (xy 115.57 66.04))
    (stroke (width 0) (type default) (color 0 0 0 0))
    (uuid f3319a5d-7be2-4858-8281-c34e8acbadce)
  )
  (wire (pts (xy 129.54 115.57) (xy 130.81 115.57))
    (stroke (width 0) (type default) (color 0 0 0 0))
    (uuid f5e617a7-deff-44d7-bdd9-afc84353967c)
  )

  (text "Not_used" (at 168.91 92.71 180)
    (effects (font (size 1.27 1.27)) (justify right bottom))
    (uuid 6f1541ca-d289-49f7-a3d2-aefb6b3d7bea)
  )

  (label "CELLX" (at 119.38 87.63 0)
    (effects (font (size 1.27 1.27)) (justify left bottom))
    (uuid ec66b105-96b2-40a9-bcad-3a3f482cf9bd)
  )

  (hierarchical_label "BAT+" (shape input) (at 105.41 66.04 180)
    (effects (font (size 1.27 1.27)) (justify right))
    (uuid 589fffb3-48b0-4c1e-b33e-c7c9916d0067)
  )
  (hierarchical_label "SDA" (shape bidirectional) (at 129.54 92.71 180)
    (effects (font (size 1.27 1.27)) (justify right))
    (uuid 681c961d-580d-47a7-a133-2b63c5a7a8ad)
  )
  (hierarchical_label "TBat" (shape input) (at 129.54 97.79 180)
    (effects (font (size 1.27 1.27)) (justify right))
    (uuid 709a4daf-96b7-49d6-9f78-54d776178a69)
  )
  (hierarchical_label "SCL" (shape input) (at 129.54 95.25 180)
    (effects (font (size 1.27 1.27)) (justify right))
    (uuid b2359c18-9a84-49b9-8ab5-8f50e606ce31)
  )
  (hierarchical_label "BAT-" (shape input) (at 105.41 97.79 180)
    (effects (font (size 1.27 1.27)) (justify right))
    (uuid b7a19f4e-8e9c-4d35-9fb3-9abe57c396dc)
  )

  (symbol (lib_id "Device:R") (at 125.73 115.57 270) (unit 1)
    (in_bom yes) (on_board yes)
    (uuid 1e8f09be-ac14-40e7-b5f3-3ae34603cbad)
    (property "Reference" "Rs1" (id 0) (at 125.73 110.3122 90))
    (property "Value" "20m 0.5%" (id 1) (at 125.73 112.6236 90))
    (property "Footprint" "Resistor_SMD:R_0603_1608Metric" (id 2) (at 125.73 113.792 90)
      (effects (font (size 1.27 1.27)) hide)
    )
    (property "Datasheet" "~" (id 3) (at 125.73 115.57 0)
      (effects (font (size 1.27 1.27)) hide)
    )
    (property "Part Number" "PE0603FRF070R02L" (id 4) (at 125.73 115.57 0)
      (effects (font (size 1.27 1.27)) hide)
    )
    (pin "1" (uuid bcacd614-332e-456a-a4e6-0e6819783246))
    (pin "2" (uuid de724be1-25e2-4c40-8696-648627fd0a6f))
  )

  (symbol (lib_id "lsf-kicad:MAX17261METD+") (at 147.32 95.25 0) (unit 1)
    (in_bom yes) (on_board yes)
    (uuid 58828737-3275-43e6-95de-e03a3a403c13)
    (property "Reference" "U1" (id 0) (at 149.86 74.93 0))
    (property "Value" "MAX17261METD+" (id 1) (at 156.21 77.47 0))
    (property "Footprint" "lsf-kicad-lib:TDFN-14-1EP_3x3mm_P0.4mm_EP1.7x2.3mm" (id 2) (at 175.26 115.57 0)
      (effects (font (size 1.27 1.27)) hide)
    )
    (property "Datasheet" "https://datasheets.maximintegrated.com/en/ds/MAX17261.pdf" (id 3) (at 147.32 92.71 0)
      (effects (font (size 1.27 1.27)) hide)
    )
    (property "Part Number" "MAX17261METD+" (id 4) (at 147.32 95.25 0)
      (effects (font (size 1.27 1.27)) hide)
    )
    (pin "1" (uuid d55fa85e-888f-4f7c-9046-70675551ae5e))
    (pin "10" (uuid 76f0b255-29d1-4a8d-bf1c-8fce1cf8d31c))
    (pin "11" (uuid 9785eb1a-0677-461c-a465-ea2c337d3a03))
    (pin "12" (uuid 5a3f5993-117d-440e-911f-395d03873675))
    (pin "13" (uuid e334ef64-21ad-4444-8c12-6ac5ea153d0a))
    (pin "14" (uuid f3a803d3-a93a-4b76-807c-f8740d74a7b8))
    (pin "2" (uuid cb8b9577-6a00-4a4c-a4df-01ae546fdb18))
    (pin "3" (uuid ef0cb379-c17c-41e5-894b-6ee40dcc119d))
    (pin "4" (uuid 546b76b8-0b6d-4b3c-8190-c3b8e76d8636))
    (pin "5" (uuid e50ae74e-2dca-4506-8f3a-f2c2058dbb43))
    (pin "6" (uuid 0f27ad59-a005-4a03-baa2-3b7469c6deb4))
    (pin "7" (uuid c73e11f7-dc49-468a-8dc2-49d4a49b3151))
    (pin "8" (uuid dce9eac2-e85e-448a-ab1b-d53a1ebf6401))
    (pin "9" (uuid 6cde3986-a019-4d59-9257-f5b889a60445))
    (pin "EP" (uuid f9f5e935-64c6-4af8-a537-a28113d51b1f))
  )

  (symbol (lib_id "Device:C") (at 167.64 85.09 90) (unit 1)
    (in_bom yes) (on_board yes)
    (uuid 87619933-9171-41ee-bb7a-b30c71ffcc31)
    (property "Reference" "C1" (id 0) (at 167.64 78.6892 90))
    (property "Value" "470n" (id 1) (at 167.64 81.0006 90))
    (property "Footprint" "Capacitor_SMD:C_0603_1608Metric" (id 2) (at 171.45 84.1248 0)
      (effects (font (size 1.27 1.27)) hide)
    )
    (property "Datasheet" "~" (id 3) (at 167.64 85.09 0)
      (effects (font (size 1.27 1.27)) hide)
    )
    (property "Part Number" "C0603C474K4RACAUTO " (id 4) (at 167.64 85.09 0)
      (effects (font (size 1.27 1.27)) hide)
    )
    (pin "1" (uuid 33bb4dad-be46-45e1-894a-944b9daa9c01))
    (pin "2" (uuid bb7258a3-5e63-447c-83ac-7f994a5ab767))
  )

  (symbol (lib_id "Device:R") (at 115.57 92.71 0) (unit 1)
    (in_bom yes) (on_board yes)
    (uuid a85843af-99d6-4035-aedf-d193dba857de)
    (property "Reference" "R2" (id 0) (at 113.03 95.25 90)
      (effects (font (size 1.27 1.27)) (justify left))
    )
    (property "Value" "200k 0.1%" (id 1) (at 118.11 97.79 90)
      (effects (font (size 1.27 1.27)) (justify left))
    )
    (property "Footprint" "Resistor_SMD:R_0603_1608Metric" (id 2) (at 113.792 92.71 90)
      (effects (font (size 1.27 1.27)) hide)
    )
    (property "Datasheet" "~" (id 3) (at 115.57 92.71 0)
      (effects (font (size 1.27 1.27)) hide)
    )
    (property "Part Number" "ERA-3AEB204V" (id 4) (at 115.57 92.71 0)
      (effects (font (size 1.27 1.27)) hide)
    )
    (pin "1" (uuid 0d5d9ac5-f42e-4883-846d-a7a564d8da71))
    (pin "2" (uuid bb43d7f3-fa39-46f9-aa12-620ba7e33554))
  )

  (symbol (lib_id "Device:R") (at 125.73 120.65 270) (unit 1)
    (in_bom yes) (on_board yes)
    (uuid a975df6a-8f24-44ce-841c-0c0ed6519812)
    (property "Reference" "Rs2" (id 0) (at 125.73 123.571 90))
    (property "Value" "20m 0.5%" (id 1) (at 125.73 125.8824 90))
    (property "Footprint" "Resistor_SMD:R_0603_1608Metric" (id 2) (at 125.73 118.872 90)
      (effects (font (size 1.27 1.27)) hide)
    )
    (property "Datasheet" "~" (id 3) (at 125.73 120.65 0)
      (effects (font (size 1.27 1.27)) hide)
    )
    (property "Part Number" "PE0603FRF070R02L" (id 4) (at 125.73 120.65 0)
      (effects (font (size 1.27 1.27)) hide)
    )
    (pin "1" (uuid 30b1c1c7-65f3-42e2-b429-7c26d5925abe))
    (pin "2" (uuid 51182669-a1b5-467b-84dc-d80e5db83b78))
  )

  (symbol (lib_id "Device:R") (at 170.18 97.79 0) (unit 1)
    (in_bom yes) (on_board yes) (fields_autoplaced)
    (uuid abf593c8-391f-4488-8d37-2d936a0e1eed)
    (property "Reference" "R3" (id 0) (at 167.64 96.5199 0)
      (effects (font (size 1.27 1.27)) (justify right))
    )
    (property "Value" "R" (id 1) (at 167.64 99.0599 0)
      (effects (font (size 1.27 1.27)) (justify right))
    )
    (property "Footprint" "Resistor_SMD:R_0603_1608Metric" (id 2) (at 168.402 97.79 90)
      (effects (font (size 1.27 1.27)) hide)
    )
    (property "Datasheet" "~" (id 3) (at 170.18 97.79 0)
      (effects (font (size 1.27 1.27)) hide)
    )
    (pin "1" (uuid 1a9f3bbc-7369-4d6a-8358-a6de14e7ff04))
    (pin "2" (uuid 9761bba6-51aa-4618-af41-5670fb27294c))
  )

  (symbol (lib_id "Device:R") (at 115.57 71.12 0) (unit 1)
    (in_bom yes) (on_board yes)
    (uuid b10e5f33-2b94-4651-88db-ec331a78764f)
    (property "Reference" "R1" (id 0) (at 117.348 69.9516 0)
      (effects (font (size 1.27 1.27)) (justify left))
    )
    (property "Value" "300k 0.1%" (id 1) (at 117.348 72.263 0)
      (effects (font (size 1.27 1.27)) (justify left))
    )
    (property "Footprint" "Resistor_SMD:R_0603_1608Metric" (id 2) (at 113.792 71.12 90)
      (effects (font (size 1.27 1.27)) hide)
    )
    (property "Datasheet" "~" (id 3) (at 115.57 71.12 0)
      (effects (font (size 1.27 1.27)) hide)
    )
    (property "Part Number" "ERA-3AEB304V" (id 4) (at 115.57 71.12 0)
      (effects (font (size 1.27 1.27)) hide)
    )
    (pin "1" (uuid 9248e820-9212-44e8-85db-9256d9d81799))
    (pin "2" (uuid a1cfa5a8-35a3-46c7-8818-f153c8298215))
  )

  (symbol (lib_id "Device:C") (at 172.72 76.2 0) (unit 1)
    (in_bom yes) (on_board yes)
    (uuid b6b08ebc-6a46-4e08-a10d-0d715f3d47a1)
    (property "Reference" "C2" (id 0) (at 175.641 75.0316 0)
      (effects (font (size 1.27 1.27)) (justify left))
    )
    (property "Value" "100n" (id 1) (at 175.641 77.343 0)
      (effects (font (size 1.27 1.27)) (justify left))
    )
    (property "Footprint" "Capacitor_SMD:C_0603_1608Metric" (id 2) (at 173.6852 80.01 0)
      (effects (font (size 1.27 1.27)) hide)
    )
    (property "Datasheet" "~" (id 3) (at 172.72 76.2 0)
      (effects (font (size 1.27 1.27)) hide)
    )
    (property "Part Number" "C0603C104K5RAC3121 " (id 4) (at 172.72 76.2 0)
      (effects (font (size 1.27 1.27)) hide)
    )
    (pin "1" (uuid 0a191b95-2f8d-4bd7-b9b5-0c58f85998f1))
    (pin "2" (uuid 3b2526b9-7a8c-4a73-a5ff-c3e5dd2dbeae))
  )

  (symbol (lib_id "power:GND") (at 120.65 129.54 0) (unit 1)
    (in_bom yes) (on_board yes) (fields_autoplaced)
    (uuid f44cc12b-d849-465e-b25f-d0a28f2fda25)
    (property "Reference" "#PWR02" (id 0) (at 120.65 135.89 0)
      (effects (font (size 1.27 1.27)) hide)
    )
    (property "Value" "GND" (id 1) (at 120.65 134.62 0))
    (property "Footprint" "" (id 2) (at 120.65 129.54 0)
      (effects (font (size 1.27 1.27)) hide)
    )
    (property "Datasheet" "" (id 3) (at 120.65 129.54 0)
      (effects (font (size 1.27 1.27)) hide)
    )
    (pin "1" (uuid 265fa29c-f509-4f43-b6e8-0f92db09d622))
  )
)
