(kicad_sch (version 20211123) (generator eeschema)

  (uuid 04ace9d2-13d1-45cb-bc44-db216a35b4ee)

  (paper "A4")

  (lib_symbols
    (symbol "Device:C" (pin_numbers hide) (pin_names (offset 0.254)) (in_bom yes) (on_board yes)
      (property "Reference" "C" (id 0) (at 0.635 2.54 0)
        (effects (font (size 1.27 1.27)) (justify left))
      )
      (property "Value" "C" (id 1) (at 0.635 -2.54 0)
        (effects (font (size 1.27 1.27)) (justify left))
      )
      (property "Footprint" "" (id 2) (at 0.9652 -3.81 0)
        (effects (font (size 1.27 1.27)) hide)
      )
      (property "Datasheet" "~" (id 3) (at 0 0 0)
        (effects (font (size 1.27 1.27)) hide)
      )
      (property "ki_keywords" "cap capacitor" (id 4) (at 0 0 0)
        (effects (font (size 1.27 1.27)) hide)
      )
      (property "ki_description" "Unpolarized capacitor" (id 5) (at 0 0 0)
        (effects (font (size 1.27 1.27)) hide)
      )
      (property "ki_fp_filters" "C_*" (id 6) (at 0 0 0)
        (effects (font (size 1.27 1.27)) hide)
      )
      (symbol "C_0_1"
        (polyline
          (pts
            (xy -2.032 -0.762)
            (xy 2.032 -0.762)
          )
          (stroke (width 0.508) (type default) (color 0 0 0 0))
          (fill (type none))
        )
        (polyline
          (pts
            (xy -2.032 0.762)
            (xy 2.032 0.762)
          )
          (stroke (width 0.508) (type default) (color 0 0 0 0))
          (fill (type none))
        )
      )
      (symbol "C_1_1"
        (pin passive line (at 0 3.81 270) (length 2.794)
          (name "~" (effects (font (size 1.27 1.27))))
          (number "1" (effects (font (size 1.27 1.27))))
        )
        (pin passive line (at 0 -3.81 90) (length 2.794)
          (name "~" (effects (font (size 1.27 1.27))))
          (number "2" (effects (font (size 1.27 1.27))))
        )
      )
    )
    (symbol "Device:D_Zener" (pin_numbers hide) (pin_names (offset 1.016) hide) (in_bom yes) (on_board yes)
      (property "Reference" "D" (id 0) (at 0 2.54 0)
        (effects (font (size 1.27 1.27)))
      )
      (property "Value" "D_Zener" (id 1) (at 0 -2.54 0)
        (effects (font (size 1.27 1.27)))
      )
      (property "Footprint" "" (id 2) (at 0 0 0)
        (effects (font (size 1.27 1.27)) hide)
      )
      (property "Datasheet" "~" (id 3) (at 0 0 0)
        (effects (font (size 1.27 1.27)) hide)
      )
      (property "ki_keywords" "diode" (id 4) (at 0 0 0)
        (effects (font (size 1.27 1.27)) hide)
      )
      (property "ki_description" "Zener diode" (id 5) (at 0 0 0)
        (effects (font (size 1.27 1.27)) hide)
      )
      (property "ki_fp_filters" "TO-???* *_Diode_* *SingleDiode* D_*" (id 6) (at 0 0 0)
        (effects (font (size 1.27 1.27)) hide)
      )
      (symbol "D_Zener_0_1"
        (polyline
          (pts
            (xy 1.27 0)
            (xy -1.27 0)
          )
          (stroke (width 0) (type default) (color 0 0 0 0))
          (fill (type none))
        )
        (polyline
          (pts
            (xy -1.27 -1.27)
            (xy -1.27 1.27)
            (xy -0.762 1.27)
          )
          (stroke (width 0.254) (type default) (color 0 0 0 0))
          (fill (type none))
        )
        (polyline
          (pts
            (xy 1.27 -1.27)
            (xy 1.27 1.27)
            (xy -1.27 0)
            (xy 1.27 -1.27)
          )
          (stroke (width 0.254) (type default) (color 0 0 0 0))
          (fill (type none))
        )
      )
      (symbol "D_Zener_1_1"
        (pin passive line (at -3.81 0 0) (length 2.54)
          (name "K" (effects (font (size 1.27 1.27))))
          (number "1" (effects (font (size 1.27 1.27))))
        )
        (pin passive line (at 3.81 0 180) (length 2.54)
          (name "A" (effects (font (size 1.27 1.27))))
          (number "2" (effects (font (size 1.27 1.27))))
        )
      )
    )
    (symbol "Device:R" (pin_numbers hide) (pin_names (offset 0)) (in_bom yes) (on_board yes)
      (property "Reference" "R" (id 0) (at 2.032 0 90)
        (effects (font (size 1.27 1.27)))
      )
      (property "Value" "R" (id 1) (at 0 0 90)
        (effects (font (size 1.27 1.27)))
      )
      (property "Footprint" "" (id 2) (at -1.778 0 90)
        (effects (font (size 1.27 1.27)) hide)
      )
      (property "Datasheet" "~" (id 3) (at 0 0 0)
        (effects (font (size 1.27 1.27)) hide)
      )
      (property "ki_keywords" "R res resistor" (id 4) (at 0 0 0)
        (effects (font (size 1.27 1.27)) hide)
      )
      (property "ki_description" "Resistor" (id 5) (at 0 0 0)
        (effects (font (size 1.27 1.27)) hide)
      )
      (property "ki_fp_filters" "R_*" (id 6) (at 0 0 0)
        (effects (font (size 1.27 1.27)) hide)
      )
      (symbol "R_0_1"
        (rectangle (start -1.016 -2.54) (end 1.016 2.54)
          (stroke (width 0.254) (type default) (color 0 0 0 0))
          (fill (type none))
        )
      )
      (symbol "R_1_1"
        (pin passive line (at 0 3.81 270) (length 1.27)
          (name "~" (effects (font (size 1.27 1.27))))
          (number "1" (effects (font (size 1.27 1.27))))
        )
        (pin passive line (at 0 -3.81 90) (length 1.27)
          (name "~" (effects (font (size 1.27 1.27))))
          (number "2" (effects (font (size 1.27 1.27))))
        )
      )
    )
    (symbol "lsf-kicad:SPV1040" (in_bom yes) (on_board yes)
      (property "Reference" "U" (id 0) (at 0 1.27 0)
        (effects (font (size 1.27 1.27)) (justify top))
      )
      (property "Value" "SPV1040" (id 1) (at 6.35 11.43 0)
        (effects (font (size 1.27 1.27)) (justify bottom))
      )
      (property "Footprint" "Package_SO:TSSOP-8_4.4x3mm_P0.65mm" (id 2) (at 0 -15.24 0)
        (effects (font (size 1.27 1.27)) hide)
      )
      (property "Datasheet" "https://gr.mouser.com/datasheet/2/389/spv1040-974182.pdf" (id 3) (at 2.54 -19.05 0)
        (effects (font (size 1.27 1.27)) hide)
      )
      (property "ki_keywords" "MPPT" (id 4) (at 0 0 0)
        (effects (font (size 1.27 1.27)) hide)
      )
      (property "ki_description" "MPPT step-up converter, input voltage range from 0.3 V to 5.5V." (id 5) (at 0 0 0)
        (effects (font (size 1.27 1.27)) hide)
      )
      (property "ki_fp_filters" "*TSSOP?8*" (id 6) (at 0 0 0)
        (effects (font (size 1.27 1.27)) hide)
      )
      (symbol "SPV1040_0_1"
        (rectangle (start -10.16 10.16) (end 10.16 -10.16)
          (stroke (width 0.254) (type default) (color 0 0 0 0))
          (fill (type background))
        )
      )
      (symbol "SPV1040_1_1"
        (pin input line (at -12.7 -2.54 0) (length 2.54)
          (name "MPP-SET" (effects (font (size 1.27 1.27))))
          (number "1" (effects (font (size 1.27 1.27))))
        )
        (pin power_in line (at 0 -12.7 90) (length 2.54)
          (name "GND" (effects (font (size 1.27 1.27))))
          (number "2" (effects (font (size 1.27 1.27))))
        )
        (pin input line (at -12.7 2.54 0) (length 2.54)
          (name "LX" (effects (font (size 1.27 1.27))))
          (number "3" (effects (font (size 1.27 1.27))))
        )
        (pin power_out line (at 12.7 5.08 180) (length 2.54)
          (name "VOUT" (effects (font (size 1.27 1.27))))
          (number "4" (effects (font (size 1.27 1.27))))
        )
        (pin input line (at 12.7 -5.08 180) (length 2.54)
          (name "VCTRL" (effects (font (size 1.27 1.27))))
          (number "5" (effects (font (size 1.27 1.27))))
        )
        (pin input line (at 12.7 -2.54 180) (length 2.54)
          (name "ICTRL_-" (effects (font (size 1.27 1.27))))
          (number "6" (effects (font (size 1.27 1.27))))
        )
        (pin input line (at 12.7 2.54 180) (length 2.54)
          (name "ICTRL_+" (effects (font (size 1.27 1.27))))
          (number "7" (effects (font (size 1.27 1.27))))
        )
        (pin input line (at -12.7 0 0) (length 2.54)
          (name "XSHUT" (effects (font (size 1.27 1.27))))
          (number "8" (effects (font (size 1.27 1.27))))
        )
      )
    )
    (symbol "power:GND" (power) (pin_names (offset 0)) (in_bom yes) (on_board yes)
      (property "Reference" "#PWR" (id 0) (at 0 -6.35 0)
        (effects (font (size 1.27 1.27)) hide)
      )
      (property "Value" "GND" (id 1) (at 0 -3.81 0)
        (effects (font (size 1.27 1.27)))
      )
      (property "Footprint" "" (id 2) (at 0 0 0)
        (effects (font (size 1.27 1.27)) hide)
      )
      (property "Datasheet" "" (id 3) (at 0 0 0)
        (effects (font (size 1.27 1.27)) hide)
      )
      (property "ki_keywords" "power-flag" (id 4) (at 0 0 0)
        (effects (font (size 1.27 1.27)) hide)
      )
      (property "ki_description" "Power symbol creates a global label with name \"GND\" , ground" (id 5) (at 0 0 0)
        (effects (font (size 1.27 1.27)) hide)
      )
      (symbol "GND_0_1"
        (polyline
          (pts
            (xy 0 0)
            (xy 0 -1.27)
            (xy 1.27 -1.27)
            (xy 0 -2.54)
            (xy -1.27 -1.27)
            (xy 0 -1.27)
          )
          (stroke (width 0) (type default) (color 0 0 0 0))
          (fill (type none))
        )
      )
      (symbol "GND_1_1"
        (pin power_in line (at 0 0 270) (length 0) hide
          (name "GND" (effects (font (size 1.27 1.27))))
          (number "1" (effects (font (size 1.27 1.27))))
        )
      )
    )
    (symbol "power:PWR_FLAG" (power) (pin_numbers hide) (pin_names (offset 0) hide) (in_bom yes) (on_board yes)
      (property "Reference" "#FLG" (id 0) (at 0 1.905 0)
        (effects (font (size 1.27 1.27)) hide)
      )
      (property "Value" "PWR_FLAG" (id 1) (at 0 3.81 0)
        (effects (font (size 1.27 1.27)))
      )
      (property "Footprint" "" (id 2) (at 0 0 0)
        (effects (font (size 1.27 1.27)) hide)
      )
      (property "Datasheet" "~" (id 3) (at 0 0 0)
        (effects (font (size 1.27 1.27)) hide)
      )
      (property "ki_keywords" "power-flag" (id 4) (at 0 0 0)
        (effects (font (size 1.27 1.27)) hide)
      )
      (property "ki_description" "Special symbol for telling ERC where power comes from" (id 5) (at 0 0 0)
        (effects (font (size 1.27 1.27)) hide)
      )
      (symbol "PWR_FLAG_0_0"
        (pin power_out line (at 0 0 90) (length 0)
          (name "pwr" (effects (font (size 1.27 1.27))))
          (number "1" (effects (font (size 1.27 1.27))))
        )
      )
      (symbol "PWR_FLAG_0_1"
        (polyline
          (pts
            (xy 0 0)
            (xy 0 1.27)
            (xy -1.016 1.905)
            (xy 0 2.54)
            (xy 1.016 1.905)
            (xy 0 1.27)
          )
          (stroke (width 0) (type default) (color 0 0 0 0))
          (fill (type none))
        )
      )
    )
    (symbol "pspice:INDUCTOR" (pin_numbers hide) (pin_names (offset 0)) (in_bom yes) (on_board yes)
      (property "Reference" "L" (id 0) (at 0 2.54 0)
        (effects (font (size 1.27 1.27)))
      )
      (property "Value" "INDUCTOR" (id 1) (at 0 -1.27 0)
        (effects (font (size 1.27 1.27)))
      )
      (property "Footprint" "" (id 2) (at 0 0 0)
        (effects (font (size 1.27 1.27)) hide)
      )
      (property "Datasheet" "~" (id 3) (at 0 0 0)
        (effects (font (size 1.27 1.27)) hide)
      )
      (property "ki_keywords" "simulation" (id 4) (at 0 0 0)
        (effects (font (size 1.27 1.27)) hide)
      )
      (property "ki_description" "Inductor symbol for simulation only" (id 5) (at 0 0 0)
        (effects (font (size 1.27 1.27)) hide)
      )
      (symbol "INDUCTOR_0_1"
        (arc (start -2.54 0) (mid -3.81 1.27) (end -5.08 0)
          (stroke (width 0) (type default) (color 0 0 0 0))
          (fill (type none))
        )
        (arc (start 0 0) (mid -1.27 1.27) (end -2.54 0)
          (stroke (width 0) (type default) (color 0 0 0 0))
          (fill (type none))
        )
        (arc (start 2.54 0) (mid 1.27 1.27) (end 0 0)
          (stroke (width 0) (type default) (color 0 0 0 0))
          (fill (type none))
        )
        (arc (start 5.08 0) (mid 3.81 1.27) (end 2.54 0)
          (stroke (width 0) (type default) (color 0 0 0 0))
          (fill (type none))
        )
      )
      (symbol "INDUCTOR_1_1"
        (pin input line (at -6.35 0 0) (length 1.27)
          (name "1" (effects (font (size 0.762 0.762))))
          (number "1" (effects (font (size 0.762 0.762))))
        )
        (pin input line (at 6.35 0 180) (length 1.27)
          (name "2" (effects (font (size 0.762 0.762))))
          (number "2" (effects (font (size 0.762 0.762))))
        )
      )
    )
  )

  (junction (at 189.23 83.82) (diameter 0) (color 0 0 0 0)
    (uuid 049ef857-3c89-4833-b2ea-1d8bad1353ae)
  )
  (junction (at 196.85 99.06) (diameter 0) (color 0 0 0 0)
    (uuid 10561ca9-9583-47a9-8cfc-b3260cfe21a2)
  )
  (junction (at 165.1 87.63) (diameter 0) (color 0 0 0 0)
    (uuid 3242ce25-8893-4180-afa6-ceb135964201)
  )
  (junction (at 162.56 99.06) (diameter 0) (color 0 0 0 0)
    (uuid 683fc79f-7da1-4429-bf47-a9b59356f0c7)
  )
  (junction (at 83.82 83.82) (diameter 0) (color 0 0 0 0)
    (uuid 6af005ae-2199-491c-b385-53975bd00707)
  )
  (junction (at 181.61 83.82) (diameter 0) (color 0 0 0 0)
    (uuid 6d7e36fa-67c4-434d-bb0c-e515a8462182)
  )
  (junction (at 219.71 83.82) (diameter 0) (color 0 0 0 0)
    (uuid 6f9d137f-42b8-481d-8f9e-a7267406f839)
  )
  (junction (at 93.98 90.17) (diameter 0) (color 0 0 0 0)
    (uuid a020f9dc-836c-409e-97bd-7a223b5af443)
  )
  (junction (at 93.98 83.82) (diameter 0) (color 0 0 0 0)
    (uuid a496f547-0e76-4312-a0ea-4a02b87e013f)
  )
  (junction (at 123.19 99.06) (diameter 0) (color 0 0 0 0)
    (uuid b044b957-ff63-48c2-81e6-fc1db724f549)
  )
  (junction (at 73.66 83.82) (diameter 0) (color 0 0 0 0)
    (uuid e0e20ce6-a992-4bda-a0cd-5a8a68abe9af)
  )
  (junction (at 165.1 95.25) (diameter 0) (color 0 0 0 0)
    (uuid eb93759a-169f-422a-abb2-16305e980ce8)
  )
  (junction (at 194.31 62.23) (diameter 0) (color 0 0 0 0)
    (uuid eefe3b11-9db5-4359-b2f5-c5594c15e292)
  )
  (junction (at 196.85 83.82) (diameter 0) (color 0 0 0 0)
    (uuid f5f33f6e-9a4e-4e6d-98f5-188dda59f1fd)
  )

  (wire (pts (xy 124.46 99.06) (xy 124.46 92.71))
    (stroke (width 0) (type default) (color 0 0 0 0))
    (uuid 071164c1-bf7d-4ed3-9140-2c99f44046f7)
  )
  (wire (pts (xy 124.46 92.71) (xy 129.54 92.71))
    (stroke (width 0) (type default) (color 0 0 0 0))
    (uuid 1097babc-aa32-4849-a120-875d5de6bfde)
  )
  (wire (pts (xy 162.56 111.125) (xy 162.56 116.84))
    (stroke (width 0) (type default) (color 0 0 0 0))
    (uuid 136a3851-1496-4c4e-995e-49b21152da8e)
  )
  (wire (pts (xy 162.56 103.505) (xy 162.56 99.06))
    (stroke (width 0) (type default) (color 0 0 0 0))
    (uuid 159cc0ef-92d5-45e7-a973-60f5f57578cc)
  )
  (wire (pts (xy 161.29 95.25) (xy 165.1 95.25))
    (stroke (width 0) (type default) (color 0 0 0 0))
    (uuid 279b20d8-d318-4f19-91b8-e9ef5a8cc984)
  )
  (wire (pts (xy 154.94 99.06) (xy 154.94 95.25))
    (stroke (width 0) (type default) (color 0 0 0 0))
    (uuid 2ac83227-8cc0-4acd-acac-a3d18b94a2e0)
  )
  (wire (pts (xy 194.31 62.23) (xy 194.31 64.77))
    (stroke (width 0) (type default) (color 0 0 0 0))
    (uuid 2e32a710-0ff8-4200-adec-b353bb8ab9ba)
  )
  (wire (pts (xy 219.71 94.615) (xy 219.71 83.82))
    (stroke (width 0) (type default) (color 0 0 0 0))
    (uuid 2e98fe08-2299-4983-821f-5da12f260877)
  )
  (wire (pts (xy 123.19 111.125) (xy 123.19 116.84))
    (stroke (width 0) (type default) (color 0 0 0 0))
    (uuid 38cd9798-7d9b-4c1b-88f8-c6a5d0f24e74)
  )
  (wire (pts (xy 67.31 83.82) (xy 73.66 83.82))
    (stroke (width 0) (type default) (color 0 0 0 0))
    (uuid 3942404d-1122-4044-ae6a-0c0419b6edff)
  )
  (wire (pts (xy 179.07 87.63) (xy 181.61 87.63))
    (stroke (width 0) (type default) (color 0 0 0 0))
    (uuid 41178b73-918c-4674-b2ab-ee1239281777)
  )
  (wire (pts (xy 83.82 101.6) (xy 83.82 116.84))
    (stroke (width 0) (type default) (color 0 0 0 0))
    (uuid 4308994a-5f06-4628-af8b-513b48e124e0)
  )
  (wire (pts (xy 154.94 92.71) (xy 161.29 92.71))
    (stroke (width 0) (type default) (color 0 0 0 0))
    (uuid 4ae01fd0-9f79-4c04-84d8-9c9191677419)
  )
  (wire (pts (xy 179.07 95.25) (xy 189.23 95.25))
    (stroke (width 0) (type default) (color 0 0 0 0))
    (uuid 5379aab7-cd68-45f4-858f-7b5de3c34172)
  )
  (wire (pts (xy 207.01 62.23) (xy 207.01 64.77))
    (stroke (width 0) (type default) (color 0 0 0 0))
    (uuid 540ee9bc-3e2b-49cc-bf1e-e6615acacb6e)
  )
  (wire (pts (xy 194.31 62.23) (xy 207.01 62.23))
    (stroke (width 0) (type default) (color 0 0 0 0))
    (uuid 59e9a2b3-f362-4dc0-8f5d-cbb93c7eda62)
  )
  (wire (pts (xy 196.85 99.06) (xy 196.85 103.505))
    (stroke (width 0) (type default) (color 0 0 0 0))
    (uuid 5a26626b-ab19-4a1d-bc9e-394684fa9050)
  )
  (wire (pts (xy 123.19 103.505) (xy 123.19 99.06))
    (stroke (width 0) (type default) (color 0 0 0 0))
    (uuid 5b6f9dc1-a612-4287-bb83-f9f280e4fe3a)
  )
  (wire (pts (xy 181.61 62.23) (xy 194.31 62.23))
    (stroke (width 0) (type default) (color 0 0 0 0))
    (uuid 61608fe2-3d2b-466d-959e-4450b4d961ec)
  )
  (wire (pts (xy 196.85 83.82) (xy 219.71 83.82))
    (stroke (width 0) (type default) (color 0 0 0 0))
    (uuid 717ebd74-46c5-4795-9c4f-5417743636a9)
  )
  (wire (pts (xy 83.82 93.98) (xy 83.82 83.82))
    (stroke (width 0) (type default) (color 0 0 0 0))
    (uuid 7ee07110-2125-41c3-ac68-c7c99480c738)
  )
  (wire (pts (xy 181.61 83.82) (xy 161.29 83.82))
    (stroke (width 0) (type default) (color 0 0 0 0))
    (uuid 7f0062b4-e7f2-4234-af31-125472e340b7)
  )
  (wire (pts (xy 207.01 72.39) (xy 207.01 74.93))
    (stroke (width 0) (type default) (color 0 0 0 0))
    (uuid 8c18c241-3e25-4940-aaaf-95da46616d25)
  )
  (wire (pts (xy 189.23 95.25) (xy 189.23 83.82))
    (stroke (width 0) (type default) (color 0 0 0 0))
    (uuid 8f4966ab-91bc-4905-aa7b-22b57538e203)
  )
  (wire (pts (xy 93.98 83.82) (xy 93.98 90.17))
    (stroke (width 0) (type default) (color 0 0 0 0))
    (uuid 905f7d8e-f4bb-461d-ba2b-970a901d75c2)
  )
  (wire (pts (xy 93.98 90.17) (xy 93.98 90.805))
    (stroke (width 0) (type default) (color 0 0 0 0))
    (uuid 93d58b8e-0647-4216-ba1a-92ee20945137)
  )
  (wire (pts (xy 234.315 83.82) (xy 219.71 83.82))
    (stroke (width 0) (type default) (color 0 0 0 0))
    (uuid 948a4357-7e9b-4a56-baa8-97e78b36c61f)
  )
  (wire (pts (xy 161.29 92.71) (xy 161.29 95.25))
    (stroke (width 0) (type default) (color 0 0 0 0))
    (uuid 985d3db2-1241-4cda-bf07-1a70c52c965d)
  )
  (wire (pts (xy 165.1 87.63) (xy 171.45 87.63))
    (stroke (width 0) (type default) (color 0 0 0 0))
    (uuid 98dbc464-dfb3-4825-a944-25fa2763c08d)
  )
  (wire (pts (xy 219.71 102.235) (xy 219.71 116.84))
    (stroke (width 0) (type default) (color 0 0 0 0))
    (uuid 9efa981b-6098-4e71-8f48-efacbb781221)
  )
  (wire (pts (xy 154.94 99.06) (xy 162.56 99.06))
    (stroke (width 0) (type default) (color 0 0 0 0))
    (uuid a0cda999-14b5-4968-84b0-b92f80056d70)
  )
  (wire (pts (xy 154.94 87.63) (xy 165.1 87.63))
    (stroke (width 0) (type default) (color 0 0 0 0))
    (uuid a18824d0-1625-4f69-a4af-0db0cfa90a3a)
  )
  (wire (pts (xy 194.31 72.39) (xy 194.31 74.93))
    (stroke (width 0) (type default) (color 0 0 0 0))
    (uuid a38e2212-b23b-4dd0-bed5-6bf5a3f9e95f)
  )
  (wire (pts (xy 181.61 83.82) (xy 181.61 62.23))
    (stroke (width 0) (type default) (color 0 0 0 0))
    (uuid a98bab58-3f1c-4f2c-bb48-f770eb50e448)
  )
  (wire (pts (xy 93.98 90.17) (xy 129.54 90.17))
    (stroke (width 0) (type default) (color 0 0 0 0))
    (uuid b0f9c030-77f6-4d5b-8bce-d8f2fb79106b)
  )
  (wire (pts (xy 73.66 101.6) (xy 73.66 116.84))
    (stroke (width 0) (type default) (color 0 0 0 0))
    (uuid bd2c3e42-f6ed-4ae6-8893-2ef685927ea1)
  )
  (wire (pts (xy 165.1 95.25) (xy 171.45 95.25))
    (stroke (width 0) (type default) (color 0 0 0 0))
    (uuid bd7ae04e-f3bf-4e3e-bbe5-ad37732404b1)
  )
  (wire (pts (xy 123.19 99.06) (xy 93.98 99.06))
    (stroke (width 0) (type default) (color 0 0 0 0))
    (uuid c5fdb7ac-85a3-4be1-b56e-f814f5544cbf)
  )
  (wire (pts (xy 196.85 83.82) (xy 196.85 86.36))
    (stroke (width 0) (type default) (color 0 0 0 0))
    (uuid c6a8e254-21d0-48c1-a86f-ab06dd00a681)
  )
  (wire (pts (xy 124.46 83.82) (xy 124.46 87.63))
    (stroke (width 0) (type default) (color 0 0 0 0))
    (uuid caf14286-f7f8-4845-b2cc-3ec674116949)
  )
  (wire (pts (xy 161.29 83.82) (xy 161.29 85.09))
    (stroke (width 0) (type default) (color 0 0 0 0))
    (uuid d0e2e579-ba89-4c09-a8aa-3b54a204c6cb)
  )
  (wire (pts (xy 181.61 87.63) (xy 181.61 83.82))
    (stroke (width 0) (type default) (color 0 0 0 0))
    (uuid d423e15f-fdb6-4ef3-a443-9ebf933db9dd)
  )
  (wire (pts (xy 120.65 83.82) (xy 124.46 83.82))
    (stroke (width 0) (type default) (color 0 0 0 0))
    (uuid d8ee3470-2bcc-4847-8d75-c3d601bec84c)
  )
  (wire (pts (xy 93.98 98.425) (xy 93.98 99.06))
    (stroke (width 0) (type default) (color 0 0 0 0))
    (uuid db6dfb9d-1c85-4320-aa35-be0adfb88dc5)
  )
  (wire (pts (xy 161.29 85.09) (xy 154.94 85.09))
    (stroke (width 0) (type default) (color 0 0 0 0))
    (uuid dfaf11c3-ace6-48e3-85bd-72137fc6f393)
  )
  (wire (pts (xy 162.56 99.06) (xy 196.85 99.06))
    (stroke (width 0) (type default) (color 0 0 0 0))
    (uuid e342030b-2c90-45a0-ac7b-6ae9e8e93fc9)
  )
  (wire (pts (xy 196.85 93.98) (xy 196.85 99.06))
    (stroke (width 0) (type default) (color 0 0 0 0))
    (uuid e55fc8f4-000e-41d0-87b0-8a07ee30e260)
  )
  (wire (pts (xy 142.24 104.14) (xy 142.24 102.87))
    (stroke (width 0) (type default) (color 0 0 0 0))
    (uuid e5906b7c-d617-4e1d-86b7-0cfa22fd3561)
  )
  (wire (pts (xy 124.46 87.63) (xy 129.54 87.63))
    (stroke (width 0) (type default) (color 0 0 0 0))
    (uuid e5e5e009-5010-4f38-b285-b0d3d5a9b4a0)
  )
  (wire (pts (xy 189.23 83.82) (xy 196.85 83.82))
    (stroke (width 0) (type default) (color 0 0 0 0))
    (uuid e7cbdd99-874c-46f7-9194-95c436d1308d)
  )
  (wire (pts (xy 124.46 99.06) (xy 123.19 99.06))
    (stroke (width 0) (type default) (color 0 0 0 0))
    (uuid ef8a46f2-262c-4f9f-bf79-5c5dd099886e)
  )
  (wire (pts (xy 83.82 83.82) (xy 93.98 83.82))
    (stroke (width 0) (type default) (color 0 0 0 0))
    (uuid f3d86153-5077-4f8f-a232-54e4e3b89f80)
  )
  (wire (pts (xy 196.85 111.125) (xy 196.85 116.84))
    (stroke (width 0) (type default) (color 0 0 0 0))
    (uuid f4b57b58-0f97-4ffe-bea4-426e488b450b)
  )
  (wire (pts (xy 73.66 83.82) (xy 83.82 83.82))
    (stroke (width 0) (type default) (color 0 0 0 0))
    (uuid f6e30ac7-4dd1-45ee-a66d-71c2f70431f2)
  )
  (wire (pts (xy 93.98 83.82) (xy 107.95 83.82))
    (stroke (width 0) (type default) (color 0 0 0 0))
    (uuid f847090b-fd98-420a-b23e-26c3eda8a393)
  )
  (wire (pts (xy 73.66 93.98) (xy 73.66 83.82))
    (stroke (width 0) (type default) (color 0 0 0 0))
    (uuid febe179f-0aa3-412f-a0fa-2a4c9bcf4015)
  )

  (label "VOUT" (at 154.94 85.09 0)
    (effects (font (size 1.27 1.27)) (justify left bottom))
    (uuid 2d0e86c6-b53e-46c0-a255-5a8922ed5d68)
  )
  (label "ICTRL-" (at 154.94 92.71 0)
    (effects (font (size 1.27 1.27)) (justify left bottom))
    (uuid 388dd820-af61-456b-8a43-9e20ab62bde4)
  )
  (label "MPP-SET" (at 129.54 92.71 180)
    (effects (font (size 1.27 1.27)) (justify right bottom))
    (uuid c5b84277-b559-4a55-8b76-4b03319b06ed)
  )
  (label "VCTRL" (at 154.94 95.25 0)
    (effects (font (size 1.27 1.27)) (justify left bottom))
    (uuid d2b1d928-0541-4447-a1d3-e6662258fd60)
  )
  (label "ICTRL+" (at 154.94 87.63 0)
    (effects (font (size 1.27 1.27)) (justify left bottom))
    (uuid e3e2bc70-1c2f-49c1-9ca6-87ad997d755e)
  )
  (label "LX" (at 129.54 87.63 180)
    (effects (font (size 1.27 1.27)) (justify right bottom))
    (uuid e9aa9f8a-73e6-4485-a0e2-831b78f3a6c7)
  )

  (hierarchical_label "BAT+" (shape input) (at 234.315 83.82 0)
    (effects (font (size 1.27 1.27)) (justify left))
    (uuid d167829f-cb5e-494f-8f92-274b62f95e16)
  )
  (hierarchical_label "PV+" (shape input) (at 67.31 83.82 180)
    (effects (font (size 1.27 1.27)) (justify right))
    (uuid d53d168a-560b-4b5f-86b4-3f04344c2a96)
  )

  (symbol (lib_id "Device:R") (at 196.85 107.315 0) (unit 1)
    (in_bom yes) (on_board yes)
    (uuid 0b649dcd-41f6-4e91-a904-edefc03fb07a)
    (property "Reference" "R503" (id 0) (at 198.628 106.1466 0)
      (effects (font (size 1.27 1.27)) (justify left))
    )
    (property "Value" "422k_0.1%" (id 1) (at 198.628 108.458 0)
      (effects (font (size 1.27 1.27)) (justify left))
    )
    (property "Footprint" "Resistor_SMD:R_0603_1608Metric" (id 2) (at 195.072 107.315 90)
      (effects (font (size 1.27 1.27)) hide)
    )
    (property "Datasheet" "~" (id 3) (at 196.85 107.315 0)
      (effects (font (size 1.27 1.27)) hide)
    )
    (property "MPN" "RN73H1JTTD4223B25" (id 4) (at 196.85 107.315 0)
      (effects (font (size 1.27 1.27)) hide)
    )
    (pin "1" (uuid ffe2c354-7857-43f4-af74-325068497938))
    (pin "2" (uuid 9b7a3a36-22ad-4361-ae57-91b14c09e0ae))
  )

  (symbol (lib_id "Device:C") (at 207.01 68.58 0) (unit 1)
    (in_bom yes) (on_board yes)
    (uuid 1a96deb6-ee95-415e-9b41-b0851b05ef95)
    (property "Reference" "COUT502" (id 0) (at 209.931 67.4116 0)
      (effects (font (size 1.27 1.27)) (justify left))
    )
    (property "Value" "33uF" (id 1) (at 209.931 69.723 0)
      (effects (font (size 1.27 1.27)) (justify left))
    )
    (property "Footprint" "Capacitor_SMD:C_0805_2012Metric" (id 2) (at 207.9752 72.39 0)
      (effects (font (size 1.27 1.27)) hide)
    )
    (property "Datasheet" "~" (id 3) (at 207.01 68.58 0)
      (effects (font (size 1.27 1.27)) hide)
    )
    (property "MPN" "C2012X5R1A336M125AC" (id 4) (at 207.01 68.58 0)
      (effects (font (size 1.27 1.27)) hide)
    )
    (pin "1" (uuid bd83e288-0d42-4d68-937f-00bbaffc870f))
    (pin "2" (uuid 730c5cdc-2234-40c9-9bb5-bde0b6c7a87c))
  )

  (symbol (lib_id "Device:C") (at 73.66 97.79 0) (unit 1)
    (in_bom yes) (on_board yes)
    (uuid 2691ee9d-4993-4b3a-98e9-c68d57226aa6)
    (property "Reference" "CIN501" (id 0) (at 76.581 96.6216 0)
      (effects (font (size 1.27 1.27)) (justify left))
    )
    (property "Value" "33uF" (id 1) (at 76.581 98.933 0)
      (effects (font (size 1.27 1.27)) (justify left))
    )
    (property "Footprint" "Capacitor_SMD:C_0805_2012Metric" (id 2) (at 74.6252 101.6 0)
      (effects (font (size 1.27 1.27)) hide)
    )
    (property "Datasheet" "~" (id 3) (at 73.66 97.79 0)
      (effects (font (size 1.27 1.27)) hide)
    )
    (property "MPN" "C2012X5R1A336M125AC" (id 4) (at 73.66 97.79 0)
      (effects (font (size 1.27 1.27)) hide)
    )
    (pin "1" (uuid 1bc7526b-f612-4cc2-bb92-560db3c716ba))
    (pin "2" (uuid dd797dab-9b38-4122-81f4-3c2d0822b310))
  )

  (symbol (lib_id "power:GND") (at 123.19 116.84 0) (unit 1)
    (in_bom yes) (on_board yes)
    (uuid 32ccf114-ec89-49df-8b39-2d75d9d21b29)
    (property "Reference" "#PWR0115" (id 0) (at 123.19 123.19 0)
      (effects (font (size 1.27 1.27)) hide)
    )
    (property "Value" "GND" (id 1) (at 123.317 121.2342 0))
    (property "Footprint" "" (id 2) (at 123.19 116.84 0)
      (effects (font (size 1.27 1.27)) hide)
    )
    (property "Datasheet" "" (id 3) (at 123.19 116.84 0)
      (effects (font (size 1.27 1.27)) hide)
    )
    (pin "1" (uuid 0d75b477-647b-414c-af35-3159460876fb))
  )

  (symbol (lib_id "power:GND") (at 207.01 74.93 0) (unit 1)
    (in_bom yes) (on_board yes)
    (uuid 38e2958a-5db6-4ad6-8b22-ca87e93562e9)
    (property "Reference" "#PWR0107" (id 0) (at 207.01 81.28 0)
      (effects (font (size 1.27 1.27)) hide)
    )
    (property "Value" "GND" (id 1) (at 207.137 79.3242 0))
    (property "Footprint" "" (id 2) (at 207.01 74.93 0)
      (effects (font (size 1.27 1.27)) hide)
    )
    (property "Datasheet" "" (id 3) (at 207.01 74.93 0)
      (effects (font (size 1.27 1.27)) hide)
    )
    (pin "1" (uuid fca761ab-6949-4ecf-aeb7-f98d417b792f))
  )

  (symbol (lib_id "power:GND") (at 142.24 104.14 0) (unit 1)
    (in_bom yes) (on_board yes)
    (uuid 445cb79c-eaf1-4682-922d-a94ebab20842)
    (property "Reference" "#PWR0106" (id 0) (at 142.24 110.49 0)
      (effects (font (size 1.27 1.27)) hide)
    )
    (property "Value" "GND" (id 1) (at 142.367 108.5342 0))
    (property "Footprint" "" (id 2) (at 142.24 104.14 0)
      (effects (font (size 1.27 1.27)) hide)
    )
    (property "Datasheet" "" (id 3) (at 142.24 104.14 0)
      (effects (font (size 1.27 1.27)) hide)
    )
    (pin "1" (uuid 1db9304e-61da-427f-a7ce-ab4ee2317402))
  )

  (symbol (lib_id "power:PWR_FLAG") (at 124.46 83.82 0) (unit 1)
    (in_bom yes) (on_board yes) (fields_autoplaced)
    (uuid 4c9a03d6-4bc7-4609-8c1f-925be5c591ae)
    (property "Reference" "#FLG0103" (id 0) (at 124.46 81.915 0)
      (effects (font (size 1.27 1.27)) hide)
    )
    (property "Value" "PWR_FLAG" (id 1) (at 124.46 78.74 0))
    (property "Footprint" "" (id 2) (at 124.46 83.82 0)
      (effects (font (size 1.27 1.27)) hide)
    )
    (property "Datasheet" "~" (id 3) (at 124.46 83.82 0)
      (effects (font (size 1.27 1.27)) hide)
    )
    (pin "1" (uuid bdf27c52-f2da-4f61-b551-000c2a2a1ed4))
  )

  (symbol (lib_id "Device:C") (at 83.82 97.79 0) (unit 1)
    (in_bom yes) (on_board yes)
    (uuid 6aee137e-e781-4615-b9ce-0bc37ca72352)
    (property "Reference" "CIN502" (id 0) (at 86.741 96.6216 0)
      (effects (font (size 1.27 1.27)) (justify left))
    )
    (property "Value" "33uF" (id 1) (at 86.741 98.933 0)
      (effects (font (size 1.27 1.27)) (justify left))
    )
    (property "Footprint" "Capacitor_SMD:C_0805_2012Metric" (id 2) (at 84.7852 101.6 0)
      (effects (font (size 1.27 1.27)) hide)
    )
    (property "Datasheet" "~" (id 3) (at 83.82 97.79 0)
      (effects (font (size 1.27 1.27)) hide)
    )
    (property "MPN" "C2012X5R1A336M125AC" (id 4) (at 83.82 97.79 0)
      (effects (font (size 1.27 1.27)) hide)
    )
    (pin "1" (uuid 21ef3cd7-3965-4eed-887a-264e4f3301d4))
    (pin "2" (uuid e4b0adec-7c31-40b9-a3d0-df03d3e712a0))
  )

  (symbol (lib_id "power:GND") (at 194.31 74.93 0) (unit 1)
    (in_bom yes) (on_board yes)
    (uuid 90b0f793-17d2-4e5b-8e60-6b391a8acab8)
    (property "Reference" "#PWR0109" (id 0) (at 194.31 81.28 0)
      (effects (font (size 1.27 1.27)) hide)
    )
    (property "Value" "GND" (id 1) (at 194.437 79.3242 0))
    (property "Footprint" "" (id 2) (at 194.31 74.93 0)
      (effects (font (size 1.27 1.27)) hide)
    )
    (property "Datasheet" "" (id 3) (at 194.31 74.93 0)
      (effects (font (size 1.27 1.27)) hide)
    )
    (pin "1" (uuid 8111a6f2-2ac3-43d7-8094-08be0d36fee0))
  )

  (symbol (lib_id "Device:D_Zener") (at 219.71 98.425 270) (unit 1)
    (in_bom yes) (on_board yes)
    (uuid 9204f113-21c8-4088-a992-665682d44042)
    (property "Reference" "D_OUT501" (id 0) (at 221.7166 97.2566 90)
      (effects (font (size 1.27 1.27)) (justify left))
    )
    (property "Value" "4v5" (id 1) (at 221.7166 99.568 90)
      (effects (font (size 1.27 1.27)) (justify left))
    )
    (property "Footprint" "00:DO216-AA" (id 2) (at 219.71 98.425 0)
      (effects (font (size 1.27 1.27)) hide)
    )
    (property "Datasheet" "~" (id 3) (at 219.71 98.425 0)
      (effects (font (size 1.27 1.27)) hide)
    )
    (property "MPN" "STPS1L40M" (id 4) (at 219.71 98.425 0)
      (effects (font (size 1.27 1.27)) hide)
    )
    (pin "1" (uuid 6158fc28-a7f3-4f54-92a8-2ccf8fa53dfc))
    (pin "2" (uuid cd0fd726-236c-4cbd-af28-bff05d289916))
  )

  (symbol (lib_id "Device:R") (at 196.85 90.17 0) (unit 1)
    (in_bom yes) (on_board yes)
    (uuid 938f1858-e526-4a7d-ae78-89f8ae65a76d)
    (property "Reference" "R502" (id 0) (at 198.628 89.0016 0)
      (effects (font (size 1.27 1.27)) (justify left))
    )
    (property "Value" "1M_0.1%" (id 1) (at 198.628 91.313 0)
      (effects (font (size 1.27 1.27)) (justify left))
    )
    (property "Footprint" "Resistor_SMD:R_0603_1608Metric" (id 2) (at 195.072 90.17 90)
      (effects (font (size 1.27 1.27)) hide)
    )
    (property "Datasheet" "~" (id 3) (at 196.85 90.17 0)
      (effects (font (size 1.27 1.27)) hide)
    )
    (property "MPN" "RN73H1JTTD1004B25" (id 4) (at 196.85 90.17 0)
      (effects (font (size 1.27 1.27)) hide)
    )
    (pin "1" (uuid 25ee5ff6-9897-4bec-ac9a-d9d6437c67d7))
    (pin "2" (uuid 5abe6bbb-8978-40f8-867b-0f538b7787db))
  )

  (symbol (lib_id "power:GND") (at 196.85 116.84 0) (unit 1)
    (in_bom yes) (on_board yes)
    (uuid 943af505-4ced-44b5-8cd2-74b46dbb87a1)
    (property "Reference" "#PWR0110" (id 0) (at 196.85 123.19 0)
      (effects (font (size 1.27 1.27)) hide)
    )
    (property "Value" "GND" (id 1) (at 196.977 121.2342 0))
    (property "Footprint" "" (id 2) (at 196.85 116.84 0)
      (effects (font (size 1.27 1.27)) hide)
    )
    (property "Datasheet" "" (id 3) (at 196.85 116.84 0)
      (effects (font (size 1.27 1.27)) hide)
    )
    (pin "1" (uuid e23affbf-d855-4a14-b322-40af243d7d7f))
  )

  (symbol (lib_id "Device:C") (at 165.1 91.44 0) (unit 1)
    (in_bom yes) (on_board yes)
    (uuid 9452127c-f8ef-4ce5-9563-7c5c9ea14279)
    (property "Reference" "CF501" (id 0) (at 168.021 90.2716 0)
      (effects (font (size 1.27 1.27)) (justify left))
    )
    (property "Value" "1uF" (id 1) (at 168.021 92.583 0)
      (effects (font (size 1.27 1.27)) (justify left))
    )
    (property "Footprint" "Capacitor_SMD:C_0603_1608Metric" (id 2) (at 166.0652 95.25 0)
      (effects (font (size 1.27 1.27)) hide)
    )
    (property "Datasheet" "~" (id 3) (at 165.1 91.44 0)
      (effects (font (size 1.27 1.27)) hide)
    )
    (property "MPN" "C0603C105M8RACAUTO" (id 4) (at 165.1 91.44 0)
      (effects (font (size 1.27 1.27)) hide)
    )
    (pin "1" (uuid 89f0576f-5264-494d-9c0a-195b4057b7ef))
    (pin "2" (uuid 24131a83-77ba-447b-8281-7d6b4024fc31))
  )

  (symbol (lib_id "Device:R") (at 175.26 95.25 270) (unit 1)
    (in_bom yes) (on_board yes)
    (uuid 9a4a6b08-7deb-4d5e-8ab1-69e0b0f6971f)
    (property "Reference" "RF502" (id 0) (at 175.26 89.9922 90))
    (property "Value" "1k" (id 1) (at 175.26 92.3036 90))
    (property "Footprint" "Resistor_SMD:R_0603_1608Metric" (id 2) (at 175.26 93.472 90)
      (effects (font (size 1.27 1.27)) hide)
    )
    (property "Datasheet" "~" (id 3) (at 175.26 95.25 0)
      (effects (font (size 1.27 1.27)) hide)
    )
    (property "MPN" "CRCW06031K00FKEA" (id 4) (at 175.26 95.25 0)
      (effects (font (size 1.27 1.27)) hide)
    )
    (pin "1" (uuid 879dfc3f-1672-4c5b-838f-6c59ecd15e5e))
    (pin "2" (uuid 99618942-5b6b-44d7-9164-bcd0433cb507))
  )

  (symbol (lib_id "power:GND") (at 162.56 116.84 0) (unit 1)
    (in_bom yes) (on_board yes)
    (uuid a3d31e14-6c55-4805-a9ac-c1aeb43dcaff)
    (property "Reference" "#PWR0108" (id 0) (at 162.56 123.19 0)
      (effects (font (size 1.27 1.27)) hide)
    )
    (property "Value" "GND" (id 1) (at 162.687 121.2342 0))
    (property "Footprint" "" (id 2) (at 162.56 116.84 0)
      (effects (font (size 1.27 1.27)) hide)
    )
    (property "Datasheet" "" (id 3) (at 162.56 116.84 0)
      (effects (font (size 1.27 1.27)) hide)
    )
    (pin "1" (uuid df0bb9be-93ce-4f7a-98d2-53a7e7d6bb23))
  )

  (symbol (lib_id "Device:R") (at 175.26 87.63 270) (unit 1)
    (in_bom yes) (on_board yes)
    (uuid a9817ae7-99bc-4087-813f-ea419a8ee279)
    (property "Reference" "RF501" (id 0) (at 175.26 82.3722 90))
    (property "Value" "1k" (id 1) (at 175.26 84.6836 90))
    (property "Footprint" "Resistor_SMD:R_0603_1608Metric" (id 2) (at 175.26 85.852 90)
      (effects (font (size 1.27 1.27)) hide)
    )
    (property "Datasheet" "~" (id 3) (at 175.26 87.63 0)
      (effects (font (size 1.27 1.27)) hide)
    )
    (property "MPN" "CRCW06031K00FKEA" (id 4) (at 175.26 87.63 0)
      (effects (font (size 1.27 1.27)) hide)
    )
    (pin "1" (uuid 771cd3ea-7aaf-4d86-bcb2-d330b23789c4))
    (pin "2" (uuid d3e2ef1d-b4e6-4003-ab03-1dcf7eb517e9))
  )

  (symbol (lib_id "Device:R") (at 185.42 83.82 270) (unit 1)
    (in_bom yes) (on_board yes)
    (uuid afbccb0f-8fc4-4b2b-b539-03e319383053)
    (property "Reference" "Rs501" (id 0) (at 185.42 78.5622 90))
    (property "Value" "20m" (id 1) (at 185.42 80.8736 90))
    (property "Footprint" "Resistor_SMD:R_0603_1608Metric" (id 2) (at 185.42 82.042 90)
      (effects (font (size 1.27 1.27)) hide)
    )
    (property "Datasheet" "~" (id 3) (at 185.42 83.82 0)
      (effects (font (size 1.27 1.27)) hide)
    )
    (property "MPN" "RCWE060320L0FQEA" (id 4) (at 185.42 83.82 0)
      (effects (font (size 1.27 1.27)) hide)
    )
    (pin "1" (uuid 3aaa42e8-9e6c-4b2b-a958-1f6af06cd60c))
    (pin "2" (uuid 75669288-7ca5-4aa2-8370-4a96b8bf2336))
  )

  (symbol (lib_id "power:GND") (at 83.82 116.84 0) (unit 1)
    (in_bom yes) (on_board yes)
    (uuid b3e56bf7-afc9-4dea-9af2-786a0d02e997)
    (property "Reference" "#PWR0116" (id 0) (at 83.82 123.19 0)
      (effects (font (size 1.27 1.27)) hide)
    )
    (property "Value" "GND" (id 1) (at 83.947 121.2342 0))
    (property "Footprint" "" (id 2) (at 83.82 116.84 0)
      (effects (font (size 1.27 1.27)) hide)
    )
    (property "Datasheet" "" (id 3) (at 83.82 116.84 0)
      (effects (font (size 1.27 1.27)) hide)
    )
    (pin "1" (uuid cd44a862-b180-4fd7-9834-febdd1426103))
  )

  (symbol (lib_id "Device:C") (at 123.19 107.315 0) (unit 1)
    (in_bom yes) (on_board yes)
    (uuid b7ad2b2a-b553-4520-86d9-3dafd25a5777)
    (property "Reference" "C501" (id 0) (at 126.111 106.1466 0)
      (effects (font (size 1.27 1.27)) (justify left))
    )
    (property "Value" "100nF" (id 1) (at 126.111 108.458 0)
      (effects (font (size 1.27 1.27)) (justify left))
    )
    (property "Footprint" "Capacitor_SMD:C_0603_1608Metric" (id 2) (at 124.1552 111.125 0)
      (effects (font (size 1.27 1.27)) hide)
    )
    (property "Datasheet" "~" (id 3) (at 123.19 107.315 0)
      (effects (font (size 1.27 1.27)) hide)
    )
    (property "MPN" "C0603C104K8RACTU" (id 4) (at 123.19 107.315 0)
      (effects (font (size 1.27 1.27)) hide)
    )
    (pin "1" (uuid 019d7b21-31c7-4216-b80e-7ddb0515d0f7))
    (pin "2" (uuid b35364a2-1e34-42bd-a30a-04ca87ea93ae))
  )

  (symbol (lib_id "Device:C") (at 194.31 68.58 0) (unit 1)
    (in_bom yes) (on_board yes)
    (uuid b80795f3-469d-4352-a848-779504cc81ce)
    (property "Reference" "COUT501" (id 0) (at 197.231 67.4116 0)
      (effects (font (size 1.27 1.27)) (justify left))
    )
    (property "Value" "33uF" (id 1) (at 197.231 69.723 0)
      (effects (font (size 1.27 1.27)) (justify left))
    )
    (property "Footprint" "Capacitor_SMD:C_0805_2012Metric" (id 2) (at 195.2752 72.39 0)
      (effects (font (size 1.27 1.27)) hide)
    )
    (property "Datasheet" "~" (id 3) (at 194.31 68.58 0)
      (effects (font (size 1.27 1.27)) hide)
    )
    (property "MPN" "C2012X5R1A336M125AC" (id 4) (at 194.31 68.58 0)
      (effects (font (size 1.27 1.27)) hide)
    )
    (pin "1" (uuid 03cec117-ee37-46d8-9887-b372ff112505))
    (pin "2" (uuid 720dcfae-ae37-4dd6-8f1b-4d7857cb4120))
  )

  (symbol (lib_id "lsf-kicad:SPV1040") (at 142.24 90.17 0) (unit 1)
    (in_bom yes) (on_board yes)
    (uuid d3107ef1-89b4-4af8-8511-22495581a99a)
    (property "Reference" "U501" (id 0) (at 142.24 76.2 0))
    (property "Value" "SPV1040" (id 1) (at 142.24 78.74 0))
    (property "Footprint" "Package_SO:TSSOP-8_4.4x3mm_P0.65mm" (id 2) (at 142.24 105.41 0)
      (effects (font (size 1.27 1.27)) hide)
    )
    (property "Datasheet" "https://www.st.com/resource/en/datasheet/spv1040.pdf" (id 3) (at 144.78 109.22 0)
      (effects (font (size 1.27 1.27)) hide)
    )
    (property "MPN" "SPV1040TTR" (id 4) (at 142.24 90.17 0)
      (effects (font (size 1.27 1.27)) hide)
    )
    (pin "1" (uuid ce908599-5d4e-40c6-bf59-1275a536eada))
    (pin "2" (uuid c056837d-2513-4195-80e8-6ce7831b313b))
    (pin "3" (uuid 520abed7-d96c-415d-97cf-d57a1b65be54))
    (pin "4" (uuid 98d873e4-9df8-4545-a0e6-0aec7500f7b2))
    (pin "5" (uuid dab4f50a-ede9-420d-9bd1-c70d697c9f2d))
    (pin "6" (uuid a221d983-e0c8-45b5-bbaf-0d5b0ab117b6))
    (pin "7" (uuid b179704e-90e3-42d6-992f-4b76e42ab765))
    (pin "8" (uuid 87f4eb31-c9fd-4bdf-acd4-255df3aad782))
  )

  (symbol (lib_id "Device:C") (at 162.56 107.315 0) (unit 1)
    (in_bom yes) (on_board yes)
    (uuid d370e043-cfe4-4d88-b4a4-5b11a75d0dd9)
    (property "Reference" "C502" (id 0) (at 165.481 106.1466 0)
      (effects (font (size 1.27 1.27)) (justify left))
    )
    (property "Value" "1nF" (id 1) (at 165.481 108.458 0)
      (effects (font (size 1.27 1.27)) (justify left))
    )
    (property "Footprint" "Capacitor_SMD:C_0603_1608Metric" (id 2) (at 163.5252 111.125 0)
      (effects (font (size 1.27 1.27)) hide)
    )
    (property "Datasheet" "~" (id 3) (at 162.56 107.315 0)
      (effects (font (size 1.27 1.27)) hide)
    )
    (property "MPN" "C0603C102J8HACTU" (id 4) (at 162.56 107.315 0)
      (effects (font (size 1.27 1.27)) hide)
    )
    (pin "1" (uuid 0894b72d-8fc1-49fc-81b8-a7ce6f3ca539))
    (pin "2" (uuid b190926c-7a95-45b6-85bc-96d8526b5f0b))
  )

  (symbol (lib_id "Device:R") (at 93.98 94.615 0) (unit 1)
    (in_bom yes) (on_board yes)
    (uuid d3fd4c52-119d-4dd4-a4e1-d3903199df98)
    (property "Reference" "R501" (id 0) (at 95.758 93.4466 0)
      (effects (font (size 1.27 1.27)) (justify left))
    )
    (property "Value" "1k" (id 1) (at 95.758 95.758 0)
      (effects (font (size 1.27 1.27)) (justify left))
    )
    (property "Footprint" "Resistor_SMD:R_0603_1608Metric" (id 2) (at 92.202 94.615 90)
      (effects (font (size 1.27 1.27)) hide)
    )
    (property "Datasheet" "~" (id 3) (at 93.98 94.615 0)
      (effects (font (size 1.27 1.27)) hide)
    )
    (property "MPN" "CRCW06031K00FKEA" (id 4) (at 93.98 94.615 0)
      (effects (font (size 1.27 1.27)) hide)
    )
    (pin "1" (uuid bbcd3075-cfe5-44dc-9bcc-21783848d89b))
    (pin "2" (uuid c3ce1af0-a626-48d5-bb41-5abf97986b28))
  )

  (symbol (lib_id "power:GND") (at 73.66 116.84 0) (unit 1)
    (in_bom yes) (on_board yes)
    (uuid df11e14a-ff27-40ff-b31f-4660e8908346)
    (property "Reference" "#PWR0117" (id 0) (at 73.66 123.19 0)
      (effects (font (size 1.27 1.27)) hide)
    )
    (property "Value" "GND" (id 1) (at 73.787 121.2342 0))
    (property "Footprint" "" (id 2) (at 73.66 116.84 0)
      (effects (font (size 1.27 1.27)) hide)
    )
    (property "Datasheet" "" (id 3) (at 73.66 116.84 0)
      (effects (font (size 1.27 1.27)) hide)
    )
    (pin "1" (uuid 54a365a4-d204-4f90-93d0-9425df84c156))
  )

  (symbol (lib_id "power:GND") (at 219.71 116.84 0) (unit 1)
    (in_bom yes) (on_board yes)
    (uuid e0e548a1-16b4-499b-9693-ed921759a5bd)
    (property "Reference" "#PWR0111" (id 0) (at 219.71 123.19 0)
      (effects (font (size 1.27 1.27)) hide)
    )
    (property "Value" "GND" (id 1) (at 219.837 121.2342 0))
    (property "Footprint" "" (id 2) (at 219.71 116.84 0)
      (effects (font (size 1.27 1.27)) hide)
    )
    (property "Datasheet" "" (id 3) (at 219.71 116.84 0)
      (effects (font (size 1.27 1.27)) hide)
    )
    (pin "1" (uuid 248a6a49-b80a-4a5b-915e-397274d5f7bd))
  )

  (symbol (lib_id "pspice:INDUCTOR") (at 114.3 83.82 0) (unit 1)
    (in_bom yes) (on_board yes)
    (uuid f90ce8c4-aa0a-4850-8df7-7788b08a7e74)
    (property "Reference" "Lx501" (id 0) (at 114.3 78.359 0))
    (property "Value" "15uH" (id 1) (at 114.3 80.6704 0))
    (property "Footprint" "Inductor_SMD:L_Bourns_SRN6045TA" (id 2) (at 114.3 83.82 0)
      (effects (font (size 1.27 1.27)) hide)
    )
    (property "Datasheet" "~" (id 3) (at 114.3 83.82 0)
      (effects (font (size 1.27 1.27)) hide)
    )
    (property "MPN" "NR5040T150M" (id 4) (at 114.3 83.82 0)
      (effects (font (size 1.27 1.27)) hide)
    )
    (pin "1" (uuid 89348727-d0bb-4e99-9b91-64092cdef6a9))
    (pin "2" (uuid d6133c2f-1b8f-4c93-a61c-4f0c726629a5))
  )
)
