{
  "board": {
    "design_settings": {
      "defaults": {
        "board_outline_line_width": 0.1,
        "copper_line_width": 0.2,
        "copper_text_size_h": 1.5,
        "copper_text_size_v": 1.5,
        "copper_text_thickness": 0.3,
        "other_line_width": 0.15,
        "silk_line_width": 0.15,
        "silk_text_size_h": 1.0,
        "silk_text_size_v": 1.0,
        "silk_text_thickness": 0.15
      },
      "diff_pair_dimensions": [],
      "drc_exclusions": [],
      "rules": {
        "min_copper_edge_clearance": 0.0,
        "solder_mask_clearance": 0.0,
        "solder_mask_min_width": 0.0
      },
      "track_widths": [],
      "via_dimensions": []
    },
    "layer_presets": []
  },
  "boards": [],
  "cvpcb": {
    "equivalence_files": []
  },
  "erc": {
    "erc_exclusions": [],
    "meta": {
      "version": 0
    },
    "pin_map": [
      [
        0,
        0,
        0,
        0,
        0,
        0,
        1,
        0,
        0,
        0,
        0,
        2
      ],
      [
        0,
        2,
        0,
        1,
        0,
        0,
        1,
        0,
        2,
        2,
        2,
        2
      ],
      [
        0,
        0,
        0,
        0,
        0,
        0,
        1,
        0,
        1,
        0,
        1,
        2
      ],
      [
        0,
        1,
        0,
        0,
        0,
        0,
        1,
        1,
        2,
        1,
        1,
        2
      ],
      [
        0,
        0,
        0,
        0,
        0,
        0,
        1,
        0,
        0,
        0,
        0,
        2
      ],
      [
        0,
        0,
        0,
        0,
        0,
        0,
        0,
        0,
        0,
        0,
        0,
        2
      ],
      [
        1,
        1,
        1,
        1,
        1,
        0,
        1,
        1,
        1,
        1,
        1,
        2
      ],
      [
        0,
        0,
        0,
        1,
        0,
        0,
        1,
        0,
        0,
        0,
        0,
        2
      ],
      [
        0,
        2,
        1,
        2,
        0,
        0,
        1,
        0,
        2,
        2,
        2,
        2
      ],
      [
        0,
        2,
        0,
        1,
        0,
        0,
        1,
        0,
        2,
        0,
        0,
        2
      ],
      [
        0,
        2,
        1,
        1,
        0,
        0,
        1,
        0,
        2,
        0,
        0,
        2
      ],
      [
        2,
        2,
        2,
        2,
        2,
        2,
        2,
        2,
        2,
        2,
        2,
        2
      ]
    ],
    "rule_severities": {
      "bus_definition_conflict": "error",
      "bus_entry_needed": "error",
      "bus_label_syntax": "error",
      "bus_to_bus_conflict": "error",
      "bus_to_net_conflict": "error",
      "different_unit_footprint": "error",
      "different_unit_net": "error",
      "duplicate_reference": "error",
      "duplicate_sheet_names": "error",
      "extra_units": "error",
      "global_label_dangling": "warning",
      "hier_label_mismatch": "error",
      "label_dangling": "error",
      "lib_symbol_issues": "warning",
      "multiple_net_names": "warning",
      "net_not_bus_member": "warning",
      "no_connect_connected": "warning",
      "no_connect_dangling": "warning",
      "pin_not_connected": "error",
      "pin_not_driven": "error",
      "pin_to_pin": "warning",
      "power_pin_not_driven": "error",
      "similar_labels": "warning",
      "unannotated": "error",
      "unit_value_mismatch": "error",
      "unresolved_variable": "error",
      "wire_dangling": "error"
    }
  },
  "libraries": {
    "pinned_footprint_libs": [],
    "pinned_symbol_libs": []
  },
  "meta": {
    "filename": "sidloc.kicad_pro",
    "version": 1
  },
  "net_settings": {
    "classes": [
      {
        "bus_width": 12.0,
        "clearance": 0.2,
        "diff_pair_gap": 0.25,
        "diff_pair_via_gap": 0.25,
        "diff_pair_width": 0.2,
        "line_style": 0,
        "microvia_diameter": 0.3,
        "microvia_drill": 0.1,
        "name": "Default",
        "pcb_color": "rgba(0, 0, 0, 0.000)",
        "schematic_color": "rgba(0, 0, 0, 0.000)",
        "track_width": 0.25,
        "via_diameter": 0.8,
        "via_drill": 0.4,
        "wire_width": 6.0
      }
    ],
    "meta": {
      "version": 2
    },
    "net_colors": null
  },
  "pcbnew": {
    "last_paths": {
      "gencad": "",
      "idf": "",
      "netlist": "",
      "specctra_dsn": "",
      "step": "",
      "vrml": ""
    },
    "page_layout_descr_file": ""
  },
  "schematic": {
    "annotate_start_num": 0,
    "drawing": {
      "default_line_thickness": 6.0,
      "default_text_size": 50.0,
      "field_names": [],
      "intersheets_ref_own_page": false,
      "intersheets_ref_prefix": "",
      "intersheets_ref_short": false,
      "intersheets_ref_show": false,
      "intersheets_ref_suffix": "",
      "junction_size_choice": 3,
      "label_size_ratio": 0.375,
      "pin_symbol_size": 25.0,
      "text_offset_ratio": 0.15
    },
    "legacy_lib_dir": "",
    "legacy_lib_list": [],
    "meta": {
      "version": 1
    },
    "net_format_name": "",
    "ngspice": {
      "fix_include_paths": true,
      "fix_passive_vals": false,
      "meta": {
        "version": 0
      },
      "model_mode": 0,
      "workbook_filename": ""
    },
    "page_layout_descr_file": "${LSF_KICAD_LIB}/layouts/A4_Landscape_lsf_kicad.kicad_wks",
    "plot_directory": "",
    "spice_adjust_passive_values": false,
    "spice_external_command": "spice \"%I\"",
    "subpart_first_id": 65,
    "subpart_id_separator": 0
  },
  "sheets": [
    [
      "e63e39d7-6ac0-4ffd-8aa3-1841a4541b55",
      ""
    ],
    [
      "b854a395-bfc6-4140-9640-75d4f9296771",
      "MCU"
    ],
    [
      "944d30b6-5e0b-4808-bb6d-659b661a85f4",
      "CAN"
    ],
    [
      "95661826-cedc-4d00-8ee8-8834174483ba",
      "Power"
    ],
    [
      "6b354ff5-0b65-492c-8665-55bb5ce5ef57",
      "PV"
    ],
    [
      "9ea3f9c6-0cc2-4494-8b77-3464b0c635c8",
      "FPGA"
    ],
    [
      "79c89831-4746-4b3d-ad67-9c7b9b0fae72",
      "Transceiver"
    ],
    [
      "8c0ec0f6-056a-4768-95d3-47657599318d",
      "RFFE"
    ],
    [
      "f5c159c6-76d5-4ef9-a42b-1b678af64652",
      "Antenna Deployment"
    ]
  ],
  "text_variables": {}
}
